-40 -32 904
-24 -8 944
8 -40 -16 904
992
-24 960
40 -40 896
-24 -48 -8 -48 832
-40 944
-40 944
-32 -8 -8 920
-16 968
-16 968
-32 952
-24 960
-16 -16 -24 -32 -8 856
992
-32 -8 -24 -40 856
-8 976
-8 -40 -8 912
48 -40 -48 832
32 -16 -8 -48 856
-24 960
-32 -48 896
992
-24 -32 -24 888
40 -16 920
-40 24 -16 888
992
24 -24 -40 880
-8 -40 928
